{
	"info": {
		"_postman_id": "09a3aa79-75e8-43e1-9b75-146ff4a99aa1",
		"name": "FasproTracker",
		"schema": "https://schema.getpostman.com/json/collection/v2.1.0/collection.json"
	},
	"item": [
		{
			"name": "UGS",
			"item": [
				{
					"name": "/ugs/api/user/regtoken",
					"request": {
						"method": "POST",
						"header": [
							{
								"key": "Content-Type",
								"value": "application/json"
							}
						],
						"body": {
							"mode": "raw",
							"raw": "{\n\t\"email\": \"relay.watson@gmail.com\"\n}"
						},
						"url": {
							"raw": "https://fsp.borqs.io/ugs/api/user/regtoken",
							"protocol": "https",
							"host": [
								"fsp",
								"borqs",
								"io"
							],
							"path": [
								"ugs",
								"api",
								"user",
								"regtoken"
							]
						}
					},
					"response": []
				},
				{
					"name": "/accounts/api/users/tokens/verify",
					"request": {
						"method": "POST",
						"header": [
							{
								"key": "Content-Type",
								"value": "application/json"
							}
						],
						"body": {
							"mode": "raw",
							"raw": "{\n\t\"email\": \"relay.watson@gmail.com\",\n\t\"type\": \"registration\",\n\t\"token\": \"QXVOL\"\n}"
						},
						"url": {
							"raw": "https://fsp.borqs.io/accounts/api/users/tokens/verify",
							"protocol": "https",
							"host": [
								"fsp",
								"borqs",
								"io"
							],
							"path": [
								"accounts",
								"api",
								"users",
								"tokens",
								"verify"
							]
						}
					},
					"response": []
				},
				{
					"name": "/ugs/api/user/register",
					"request": {
						"method": "POST",
						"header": [
							{
								"key": "Content-Type",
								"value": "application/json"
							}
						],
						"body": {
							"mode": "raw",
							"raw": "{\n\t\"email\": \"relay.watson@gmail.com\",\n\t\"name\": \"Watson\",\n\t\"regToken\": \"QXVOL\",\n\t\"phone\": \"+886988000256\",\n\t\"type\": \"supervisor\",\n\t\"dob\": \"1988-8-8\",\n\t\"password\": \"88888888\"\n}"
						},
						"url": {
							"raw": "https://fsp.borqs.io/ugs/api/user/register",
							"protocol": "https",
							"host": [
								"fsp",
								"borqs",
								"io"
							],
							"path": [
								"ugs",
								"api",
								"user",
								"register"
							]
						}
					},
					"response": []
				},
				{
					"name": "/ugs/api/user/login",
					"request": {
						"method": "POST",
						"header": [
							{
								"key": "Content-Type",
								"value": "application/json"
							}
						],
						"body": {
							"mode": "raw",
							"raw": "{\n\t\"email\": \"relay.watson@gmail.com\",\n\t\"type\": \"supervisor\",\n\t\"password\": \"88888888\"\n}"
						},
						"url": {
							"raw": "https://fsp.borqs.io/ugs/api/user/login",
							"protocol": "https",
							"host": [
								"fsp",
								"borqs",
								"io"
							],
							"path": [
								"ugs",
								"api",
								"user",
								"login"
							]
						}
					},
					"response": []
				},
				{
					"name": "/ugs/api/user/",
					"protocolProfileBehavior": {
						"disableBodyPruning": true
					},
					"request": {
						"method": "GET",
						"header": [
							{
								"key": "Content-Type",
								"value": "application/json"
							}
						],
						"body": {
							"mode": "raw",
							"raw": ""
						},
						"url": {
							"raw": "https://fsp.borqs.io/ugs/api/user/5cf0a8cce4b04d8f8f6a2ee0?ugs_token=eyJhbGciOiJIUzI1NiJ9.eyJqdGkiOiI1ZDE2ZjA3N2U0YjA3ZjE4NzUzY2UyNGQiLCJpYXQiOjE1NjE3ODgwMzYsInN1YiI6IldhdHNvbiIsImlzcyI6IkJPUlFTIFVHUyBTRVJWRVIiLCJhdWQiOiJ1c2VyIiwiZXhwIjoxNTYxODc0NDM2fQ.Mxjx-iU7dQmB4xOWxMRVdgNVyV0W7JvLEWK1hvZj0uo",
							"protocol": "https",
							"host": [
								"fsp",
								"borqs",
								"io"
							],
							"path": [
								"ugs",
								"api",
								"user",
								"5cf0a8cce4b04d8f8f6a2ee0"
							],
							"query": [
								{
									"key": "ugs_token",
									"value": "eyJhbGciOiJIUzI1NiJ9.eyJqdGkiOiI1ZDE2ZjA3N2U0YjA3ZjE4NzUzY2UyNGQiLCJpYXQiOjE1NjE3ODgwMzYsInN1YiI6IldhdHNvbiIsImlzcyI6IkJPUlFTIFVHUyBTRVJWRVIiLCJhdWQiOiJ1c2VyIiwiZXhwIjoxNTYxODc0NDM2fQ.Mxjx-iU7dQmB4xOWxMRVdgNVyV0W7JvLEWK1hvZj0uo"
								}
							]
						}
					},
					"response": []
				},
				{
					"name": "/ugs/api/group",
					"request": {
						"method": "POST",
						"header": [
							{
								"key": "Content-Type",
								"value": "application/json"
							}
						],
						"body": {
							"mode": "raw",
							"raw": "{\n    \"title\": \"MyGroup\",\n    \"photo_base64\": \"\"\n}"
						},
						"url": {
							"raw": "https://fsp.borqs.io/ugs/api/group?ugs_token=eyJhbGciOiJIUzI1NiJ9.eyJqdGkiOiI1ZDE2ZjA3N2U0YjA3ZjE4NzUzY2UyNGQiLCJpYXQiOjE1NjE3ODgwMzYsInN1YiI6IldhdHNvbiIsImlzcyI6IkJPUlFTIFVHUyBTRVJWRVIiLCJhdWQiOiJ1c2VyIiwiZXhwIjoxNTYxODc0NDM2fQ.Mxjx-iU7dQmB4xOWxMRVdgNVyV0W7JvLEWK1hvZj0uo",
							"protocol": "https",
							"host": [
								"fsp",
								"borqs",
								"io"
							],
							"path": [
								"ugs",
								"api",
								"group"
							],
							"query": [
								{
									"key": "ugs_token",
									"value": "eyJhbGciOiJIUzI1NiJ9.eyJqdGkiOiI1ZDE2ZjA3N2U0YjA3ZjE4NzUzY2UyNGQiLCJpYXQiOjE1NjE3ODgwMzYsInN1YiI6IldhdHNvbiIsImlzcyI6IkJPUlFTIFVHUyBTRVJWRVIiLCJhdWQiOiJ1c2VyIiwiZXhwIjoxNTYxODc0NDM2fQ.Mxjx-iU7dQmB4xOWxMRVdgNVyV0W7JvLEWK1hvZj0uo"
								}
							]
						}
					},
					"response": []
				},
				{
					"name": "/ugs/api/group",
					"protocolProfileBehavior": {
						"disableBodyPruning": true
					},
					"request": {
						"method": "GET",
						"header": [
							{
								"key": "Content-Type",
								"value": "application/json"
							}
						],
						"body": {
							"mode": "raw",
							"raw": "{\n    \"title\": \"MyGroup\",\n    \"photo_base64\": \"\"\n}"
						},
						"url": {
							"raw": "https://fsp.borqs.io/ugs/api/group?ugs_token=eyJhbGciOiJIUzI1NiJ9.eyJqdGkiOiI1ZDE2ZjA3N2U0YjA3ZjE4NzUzY2UyNGQiLCJpYXQiOjE1NjE3ODgwMzYsInN1YiI6IldhdHNvbiIsImlzcyI6IkJPUlFTIFVHUyBTRVJWRVIiLCJhdWQiOiJ1c2VyIiwiZXhwIjoxNTYxODc0NDM2fQ.Mxjx-iU7dQmB4xOWxMRVdgNVyV0W7JvLEWK1hvZj0uo",
							"protocol": "https",
							"host": [
								"fsp",
								"borqs",
								"io"
							],
							"path": [
								"ugs",
								"api",
								"group"
							],
							"query": [
								{
									"key": "ugs_token",
									"value": "eyJhbGciOiJIUzI1NiJ9.eyJqdGkiOiI1ZDE2ZjA3N2U0YjA3ZjE4NzUzY2UyNGQiLCJpYXQiOjE1NjE3ODgwMzYsInN1YiI6IldhdHNvbiIsImlzcyI6IkJPUlFTIFVHUyBTRVJWRVIiLCJhdWQiOiJ1c2VyIiwiZXhwIjoxNTYxODc0NDM2fQ.Mxjx-iU7dQmB4xOWxMRVdgNVyV0W7JvLEWK1hvZj0uo"
								}
							]
						}
					},
					"response": []
				},
				{
					"name": "/ugs/api/user/addwearable",
					"request": {
						"method": "POST",
						"header": [
							{
								"key": "Content-Type",
								"value": "application/json"
							}
						],
						"body": {
							"mode": "raw",
							"raw": "{\n    \"mac\": \"112233445566\",\n    \"type\": \"watch\",\n    \"name\": \"faspro\"\n}"
						},
						"url": {
							"raw": "https://fsp.borqs.io/ugs/api/user/addwearable?ugs_token=eyJhbGciOiJIUzI1NiJ9.eyJqdGkiOiI1ZDE2ZjA3N2U0YjA3ZjE4NzUzY2UyNGQiLCJpYXQiOjE1NjE3ODgwMzYsInN1YiI6IldhdHNvbiIsImlzcyI6IkJPUlFTIFVHUyBTRVJWRVIiLCJhdWQiOiJ1c2VyIiwiZXhwIjoxNTYxODc0NDM2fQ.Mxjx-iU7dQmB4xOWxMRVdgNVyV0W7JvLEWK1hvZj0uo",
							"protocol": "https",
							"host": [
								"fsp",
								"borqs",
								"io"
							],
							"path": [
								"ugs",
								"api",
								"user",
								"addwearable"
							],
							"query": [
								{
									"key": "ugs_token",
									"value": "eyJhbGciOiJIUzI1NiJ9.eyJqdGkiOiI1ZDE2ZjA3N2U0YjA3ZjE4NzUzY2UyNGQiLCJpYXQiOjE1NjE3ODgwMzYsInN1YiI6IldhdHNvbiIsImlzcyI6IkJPUlFTIFVHUyBTRVJWRVIiLCJhdWQiOiJ1c2VyIiwiZXhwIjoxNTYxODc0NDM2fQ.Mxjx-iU7dQmB4xOWxMRVdgNVyV0W7JvLEWK1hvZj0uo"
								}
							]
						}
					},
					"response": []
				},
				{
					"name": "/ugs/api/group\b/{groudId}/user",
					"request": {
						"method": "POST",
						"header": [
							{
								"key": "Content-Type",
								"value": "application/json"
							}
						],
						"body": {
							"mode": "raw",
							"raw": "{\n\t\"_id\": \"5cf0a8cce4b04d8f8f6a2ee0\"\n} "
						},
						"url": {
							"raw": "https://fsp.borqs.io/ugs/api/group/5d16fe85e4b07f18753ce24e/user?ugs_token=eyJhbGciOiJIUzI1NiJ9.eyJqdGkiOiI1ZDE2ZjA3N2U0YjA3ZjE4NzUzY2UyNGQiLCJpYXQiOjE1NjE3ODgwMzYsInN1YiI6IldhdHNvbiIsImlzcyI6IkJPUlFTIFVHUyBTRVJWRVIiLCJhdWQiOiJ1c2VyIiwiZXhwIjoxNTYxODc0NDM2fQ.Mxjx-iU7dQmB4xOWxMRVdgNVyV0W7JvLEWK1hvZj0uo",
							"protocol": "https",
							"host": [
								"fsp",
								"borqs",
								"io"
							],
							"path": [
								"ugs",
								"api",
								"group",
								"5d16fe85e4b07f18753ce24e",
								"user"
							],
							"query": [
								{
									"key": "ugs_token",
									"value": "eyJhbGciOiJIUzI1NiJ9.eyJqdGkiOiI1ZDE2ZjA3N2U0YjA3ZjE4NzUzY2UyNGQiLCJpYXQiOjE1NjE3ODgwMzYsInN1YiI6IldhdHNvbiIsImlzcyI6IkJPUlFTIFVHUyBTRVJWRVIiLCJhdWQiOiJ1c2VyIiwiZXhwIjoxNTYxODc0NDM2fQ.Mxjx-iU7dQmB4xOWxMRVdgNVyV0W7JvLEWK1hvZj0uo"
								}
							]
						}
					},
					"response": []
				}
			]
		}
	]
}